%YAML 1.1
%TAG !u! tag:unity3d.com,2011:
--- !u!1001 &6304520730725781150
PrefabInstance:
  m_ObjectHideFlags: 0
  serializedVersion: 2
  m_Modification:
    m_TransformParent: {fileID: 0}
    m_Modifications:
    - target: {fileID: 964855905, guid: 60e22b8c94fb80240a5351861eecb7c3, type: 3}
      propertyPath: m_IsActive
      value: 0
      objectReference: {fileID: 0}
    - target: {fileID: 1238587825617635298, guid: 60e22b8c94fb80240a5351861eecb7c3, type: 3}
      propertyPath: m_Text
      value: crayon gris
      objectReference: {fileID: 0}
    - target: {fileID: 1238587826115925214, guid: 60e22b8c94fb80240a5351861eecb7c3, type: 3}
      propertyPath: m_Color.b
      value: 0.5943396
      objectReference: {fileID: 0}
    - target: {fileID: 1238587826115925214, guid: 60e22b8c94fb80240a5351861eecb7c3, type: 3}
      propertyPath: m_Color.g
      value: 0.5943396
      objectReference: {fileID: 0}
    - target: {fileID: 1238587826115925214, guid: 60e22b8c94fb80240a5351861eecb7c3, type: 3}
      propertyPath: m_Color.r
      value: 0.5943396
      objectReference: {fileID: 0}
    - target: {fileID: 1238587826475375251, guid: 60e22b8c94fb80240a5351861eecb7c3, type: 3}
      propertyPath: m_Color.b
      value: 0.34250444
      objectReference: {fileID: 0}
    - target: {fileID: 1238587826475375251, guid: 60e22b8c94fb80240a5351861eecb7c3, type: 3}
      propertyPath: m_Color.g
      value: 0.6415094
      objectReference: {fileID: 0}
    - target: {fileID: 1238587826475375251, guid: 60e22b8c94fb80240a5351861eecb7c3, type: 3}
      propertyPath: m_Color.r
      value: 0.34193662
      objectReference: {fileID: 0}
    - target: {fileID: 1238587826756386599, guid: 60e22b8c94fb80240a5351861eecb7c3, type: 3}
      propertyPath: m_Text
      value: 'crayon de

        bois'
      objectReference: {fileID: 0}
    - target: {fileID: 1938970168200072706, guid: 60e22b8c94fb80240a5351861eecb7c3, type: 3}
      propertyPath: m_Name
      value: CrayonBoisGris
      objectReference: {fileID: 0}
    - target: {fileID: 1938970168200072707, guid: 60e22b8c94fb80240a5351861eecb7c3, type: 3}
      propertyPath: m_RootOrder
      value: 0
      objectReference: {fileID: 0}
    - target: {fileID: 1938970168200072707, guid: 60e22b8c94fb80240a5351861eecb7c3, type: 3}
      propertyPath: m_LocalPosition.x
      value: 0
      objectReference: {fileID: 0}
    - target: {fileID: 1938970168200072707, guid: 60e22b8c94fb80240a5351861eecb7c3, type: 3}
      propertyPath: m_LocalPosition.y
      value: 0
      objectReference: {fileID: 0}
    - target: {fileID: 1938970168200072707, guid: 60e22b8c94fb80240a5351861eecb7c3, type: 3}
      propertyPath: m_LocalPosition.z
      value: 0
      objectReference: {fileID: 0}
    - target: {fileID: 1938970168200072707, guid: 60e22b8c94fb80240a5351861eecb7c3, type: 3}
      propertyPath: m_LocalRotation.w
      value: 1
      objectReference: {fileID: 0}
    - target: {fileID: 1938970168200072707, guid: 60e22b8c94fb80240a5351861eecb7c3, type: 3}
      propertyPath: m_LocalRotation.x
      value: 0
      objectReference: {fileID: 0}
    - target: {fileID: 1938970168200072707, guid: 60e22b8c94fb80240a5351861eecb7c3, type: 3}
      propertyPath: m_LocalRotation.y
      value: 0
      objectReference: {fileID: 0}
    - target: {fileID: 1938970168200072707, guid: 60e22b8c94fb80240a5351861eecb7c3, type: 3}
      propertyPath: m_LocalRotation.z
      value: 0
      objectReference: {fileID: 0}
    - target: {fileID: 1938970168200072707, guid: 60e22b8c94fb80240a5351861eecb7c3, type: 3}
      propertyPath: m_LocalEulerAnglesHint.x
      value: 0
      objectReference: {fileID: 0}
    - target: {fileID: 1938970168200072707, guid: 60e22b8c94fb80240a5351861eecb7c3, type: 3}
      propertyPath: m_LocalEulerAnglesHint.y
      value: 0
      objectReference: {fileID: 0}
    - target: {fileID: 1938970168200072707, guid: 60e22b8c94fb80240a5351861eecb7c3, type: 3}
      propertyPath: m_LocalEulerAnglesHint.z
      value: 0
      objectReference: {fileID: 0}
    - target: {fileID: 1938970168964963010, guid: 60e22b8c94fb80240a5351861eecb7c3, type: 3}
      propertyPath: m_Sprite
      value: 
      objectReference: {fileID: 21300000, guid: 8865119d3459ad346872a52bcea03edf, type: 3}
    - target: {fileID: 2935885469852555078, guid: 60e22b8c94fb80240a5351861eecb7c3, type: 3}
      propertyPath: m_Text
      value: <b>Crayon de bois</b> ou <b>Crayon gris</b> ?
      objectReference: {fileID: 0}
    - target: {fileID: 3579173542151931257, guid: 60e22b8c94fb80240a5351861eecb7c3, type: 3}
      propertyPath: m_Sprite
      value: 
      objectReference: {fileID: 21300000, guid: 53dca37fcb1cb5045a32ef52020486cd, type: 3}
    - target: {fileID: 3579173543028322874, guid: 60e22b8c94fb80240a5351861eecb7c3, type: 3}
      propertyPath: m_Sprite
      value: 
      objectReference: {fileID: 21300000, guid: 85a8261963562a94d928815a70e87114, type: 3}
    m_RemovedComponents: []
  m_SourcePrefab: {fileID: 100100000, guid: 60e22b8c94fb80240a5351861eecb7c3, type: 3}
